My Data Analysis Portfolio - modeleval
…
── Model ───────────────────────────────────────────────────────────────────────
Logistic Regression Model Specification (classification)

Computational engine: glm 

Nausea_fit <- 
  Nausea_wflow %>% 
  fit(data = train_data)

Nausea_fit %>% 
  extract_fit_parsnip() %>% 
  tidy()

# A tibble: 38 × 5
   term                 estimate std.error statistic p.value
   <chr>                   <dbl>     <dbl>     <dbl>   <dbl>
 1 (Intercept)             1.63      9.40      0.173  0.862 
 2 SwollenLymphNodesYes   -0.241     0.232    -1.04   0.298 
 3 ChestCongestionYes      0.219     0.257     0.853  0.394 
 4 ChillsSweatsYes         0.115     0.332     0.346  0.729 
 5 NasalCongestionYes      0.560     0.311     1.80   0.0713
 6 CoughYNYes             -0.705     0.611    -1.15   0.249 
 7 SneezeYes               0.117     0.248     0.473  0.636 
 8 FatigueYes              0.177     0.438     0.403  0.687 
 9 SubjectiveFeverYes      0.229     0.264     0.868  0.385 
10 HeadacheYes             0.435     0.352     1.24   0.216 
# … with 28 more rows
# ℹ Use `print(n = ...)` to see more rows

Predict

#Use a trained workflow to predict
#train_data
predict(Nausea_fit, train_data)

Warning in predict.lm(object, newdata, se.fit, scale = 1, type = if (type == :
prediction from a rank-deficient fit may be misleading

# A tibble: 547 × 1
   .pred_class
   <fct>      
 1 No         
 2 Yes        
 3 No         
 4 No         
 5 Yes        
 6 No         
 7 No         
 8 No         
 9 No         
10 No         
# … with 537 more rows
# ℹ Use `print(n = ...)` to see more rows
…
#get the value of ROC
Nausea_aug %>% 
  roc_curve(truth = Nausea, .pred_No)

# A tibble: 548 × 3
   .threshold specificity sensitivity
        <dbl>       <dbl>       <dbl>
 1 -Inf           0                 1
 2    0.00881     0                 1
 3    0.0132      0.00535           1
 4    0.0165      0.0107            1
 5    0.0167      0.0160            1
 6    0.0182      0.0214            1
 7    0.0183      0.0267            1
 8    0.0202      0.0321            1
 9    0.0220      0.0374            1
10    0.0267      0.0428            1
# … with 538 more rows
# ℹ Use `print(n = ...)` to see more rows
…
# A tibble: 1 × 3
  .metric .estimator .estimate
  <chr>   <chr>          <dbl>
1 roc_auc binary         0.787

#test_data
predict(Nausea_fit, test_data)

Warning in predict.lm(object, newdata, se.fit, scale = 1, type = if (type == :
prediction from a rank-deficient fit may be misleading

# A tibble: 183 × 1
   .pred_class
   <fct>      
 1 No         
 2 No         
 3 No         
 4 No         
 5 No         
 6 Yes        
 7 Yes        
 8 No         
 9 No         
10 Yes        
# … with 173 more rows
# ℹ Use `print(n = ...)` to see more rows
…
#get the value of ROC
Nausea_aug %>% 
  roc_curve(truth = Nausea, .pred_No)

# A tibble: 185 × 3
   .threshold specificity sensitivity
        <dbl>       <dbl>       <dbl>
 1  -Inf           0            1    
 2     0.0315      0            1    
 3     0.0543      0.0147       1    
 4     0.0987      0.0294       1    
 5     0.118       0.0441       1    
 6     0.122       0.0588       1    
 7     0.143       0.0735       1    
 8     0.155       0.0882       1    
 9     0.166       0.0882       0.991
10     0.168       0.0882       0.983
# … with 175 more rows
# ℹ Use `print(n = ...)` to see more rows
…
Nausea_fit %>% 
  extract_fit_parsnip() %>% 
  tidy()

# A tibble: 2 × 5
  term         estimate std.error statistic    p.value
  <chr>           <dbl>     <dbl>     <dbl>      <dbl>
1 (Intercept)    -0.790     0.172    -4.59  0.00000447
2 RunnyNoseYes    0.188     0.202     0.930 0.352     

#Use a trained workflow to predict 
#train_data
predict(Nausea_fit, train_data)

# A tibble: 547 × 1
   .pred_class
   <fct>      
 1 No         
 2 No         
 3 No         
 4 No         
 5 No         
 6 No         
 7 No         
 8 No         
 9 No         
10 No         
# … with 537 more rows
# ℹ Use `print(n = ...)` to see more rows
…
#Estimates the area under the curve
Nausea_aug %>% 
  roc_auc(truth = Nausea, .pred_No)

# A tibble: 1 × 3
  .metric .estimator .estimate
  <chr>   <chr>          <dbl>
1 roc_auc binary         0.519

#test_data
predict(Nausea_fit, test_data)

# A tibble: 183 × 1
   .pred_class
   <fct>      
 1 No         
 2 No         
 3 No         
 4 No         
 5 No         
 6 No         
 7 No         
 8 No         
 9 No         
10 No         
# … with 173 more rows
# ℹ Use `print(n = ...)` to see more rows
…
