My Data Analysis Portfolio - Tidy Tuesday Exercise
…
#Decision tree
tree_grid <- grid_regular(cost_complexity(),
                          tree_depth(),
                          levels = 5)
tree_grid

# A tibble: 25 × 2
   cost_complexity tree_depth
             <dbl>      <int>
 1    0.0000000001          1
 2    0.0000000178          1
 3    0.00000316            1
 4    0.000562              1
 5    0.1                   1
 6    0.0000000001          4
 7    0.0000000178          4
 8    0.00000316            4
 9    0.000562              4
10    0.1                   4
# ℹ 15 more rows
…
See `?dials::finalize` or `?dials::update.parameters` for more information.

#Decision tree
tree_res <- 
  tree_wf %>% 
  tune_grid(
    resamples = CV5,
    grid = tree_grid
  )
tree_res

# Tuning results
# 5-fold cross-validation repeated 5 times 
# A tibble: 25 × 5
   splits         id      id2   .metrics          .notes          
   <list>         <chr>   <chr> <list>            <list>          
 1 <split [28/8]> Repeat1 Fold1 <tibble [50 × 6]> <tibble [0 × 3]>
 2 <split [29/7]> Repeat1 Fold2 <tibble [50 × 6]> <tibble [0 × 3]>
 3 <split [29/7]> Repeat1 Fold3 <tibble [50 × 6]> <tibble [0 × 3]>
 4 <split [29/7]> Repeat1 Fold4 <tibble [50 × 6]> <tibble [0 × 3]>
 5 <split [29/7]> Repeat1 Fold5 <tibble [50 × 6]> <tibble [0 × 3]>
 6 <split [28/8]> Repeat2 Fold1 <tibble [50 × 6]> <tibble [0 × 3]>
 7 <split [29/7]> Repeat2 Fold2 <tibble [50 × 6]> <tibble [0 × 3]>
 8 <split [29/7]> Repeat2 Fold3 <tibble [50 × 6]> <tibble [0 × 3]>
 9 <split [29/7]> Repeat2 Fold4 <tibble [50 × 6]> <tibble [0 × 3]>
10 <split [29/7]> Repeat2 Fold5 <tibble [50 × 6]> <tibble [0 × 3]>
# ℹ 15 more rows

#LASSO
glm_res <-glm_wf%>%
  tune_grid(
    resamples=CV5,
    grid=glm_grid,
    control=control_grid(save_pred = TRUE),
    metrics=metric_set(rmse)
  )
glm_res

# Tuning results
# 5-fold cross-validation repeated 5 times 
# A tibble: 25 × 6
   splits         id      id2   .metrics          .notes           .predictions
   <list>         <chr>   <chr> <list>            <list>           <list>      
 1 <split [28/8]> Repeat1 Fold1 <tibble [30 × 5]> <tibble [0 × 3]> <tibble>    
 2 <split [29/7]> Repeat1 Fold2 <tibble [30 × 5]> <tibble [0 × 3]> <tibble>    
 3 <split [29/7]> Repeat1 Fold3 <tibble [30 × 5]> <tibble [0 × 3]> <tibble>    
 4 <split [29/7]> Repeat1 Fold4 <tibble [30 × 5]> <tibble [0 × 3]> <tibble>    
 5 <split [29/7]> Repeat1 Fold5 <tibble [30 × 5]> <tibble [0 × 3]> <tibble>    
 6 <split [28/8]> Repeat2 Fold1 <tibble [30 × 5]> <tibble [0 × 3]> <tibble>    
 7 <split [29/7]> Repeat2 Fold2 <tibble [30 × 5]> <tibble [0 × 3]> <tibble>    
 8 <split [29/7]> Repeat2 Fold3 <tibble [30 × 5]> <tibble [0 × 3]> <tibble>    
 9 <split [29/7]> Repeat2 Fold4 <tibble [30 × 5]> <tibble [0 × 3]> <tibble>    
10 <split [29/7]> Repeat2 Fold5 <tibble [30 × 5]> <tibble [0 × 3]> <tibble>    
# ℹ 15 more rows

#Random forest

rf_res <- rf_wf %>%
  tune_grid(
    resamples=CV5,
    grid=25,
    control=control_grid(save_pred=TRUE),
    metrics = metric_set(rmse))
rf_res

# Tuning results
# 5-fold cross-validation repeated 5 times 
# A tibble: 25 × 6
   splits         id      id2   .metrics          .notes           .predictions
   <list>         <chr>   <chr> <list>            <list>           <list>      
 1 <split [28/8]> Repeat1 Fold1 <tibble [24 × 6]> <tibble [7 × 3]> <tibble>    
 2 <split [29/7]> Repeat1 Fold2 <tibble [24 × 6]> <tibble [7 × 3]> <tibble>    
 3 <split [29/7]> Repeat1 Fold3 <tibble [24 × 6]> <tibble [7 × 3]> <tibble>    
 4 <split [29/7]> Repeat1 Fold4 <tibble [24 × 6]> <tibble [7 × 3]> <tibble>    
 5 <split [29/7]> Repeat1 Fold5 <tibble [24 × 6]> <tibble [7 × 3]> <tibble>    
 6 <split [28/8]> Repeat2 Fold1 <tibble [24 × 6]> <tibble [7 × 3]> <tibble>    
 7 <split [29/7]> Repeat2 Fold2 <tibble [24 × 6]> <tibble [7 × 3]> <tibble>    
 8 <split [29/7]> Repeat2 Fold3 <tibble [24 × 6]> <tibble [7 × 3]> <tibble>    
 9 <split [29/7]> Repeat2 Fold4 <tibble [24 × 6]> <tibble [7 × 3]> <tibble>    
10 <split [29/7]> Repeat2 Fold5 <tibble [24 × 6]> <tibble [7 × 3]> <tibble>    
# ℹ 15 more rows
…
